%YAML 1.1
%TAG !u! tag:unity3d.com,2011:
--- !u!114 &11400000
MonoBehaviour:
  m_ObjectHideFlags: 0
  m_CorrespondingSourceObject: {fileID: 0}
  m_PrefabInstance: {fileID: 0}
  m_PrefabAsset: {fileID: 0}
  m_GameObject: {fileID: 0}
  m_Enabled: 1
  m_EditorHideFlags: 0
  m_Script: {fileID: 11500000, guid: 7f0f58fe93197ce4486cbb123ab4c464, type: 3}
  m_Name: WeaponsSettings
  m_EditorClassIdentifier: 
  PlaneBullet:
    prefab: {fileID: 8306597971504213952, guid: 878dd3824e4cc4144a1133cf5c5d1782, type: 3}
